<svg width="24" height="24" viewBox="0 0 24 24" fill="none" xmlns="http://www.w3.org/2000/svg">
    <path d="M9.45419 1.03507C8.92094 1.16408 8.41779 1.61132 8.24147 2.11017C8.20277 2.20908 8.12106 2.62192 8.05225 3.03046C7.88454 4.01956 7.73402 4.30339 7.23947 4.54421C7.04165 4.63882 6.94274 4.66033 6.69332 4.66033C6.43099 4.65603 6.30628 4.62162 5.68272 4.3808C4.97745 4.10987 4.97315 4.10987 4.5216 4.10557C4.10446 4.10557 4.04856 4.11417 3.79053 4.23888C3.63571 4.31199 3.42499 4.45821 3.31748 4.57002C3.08956 4.80224 1.19737 8.04046 1.06836 8.4275C0.956549 8.75433 0.986652 9.27469 1.13287 9.59722C1.29198 9.93265 1.4468 10.1047 2.05746 10.6035C2.35849 10.8529 2.65092 11.1153 2.70682 11.1798C3.07666 11.6485 3.08526 12.3323 2.71972 12.7967C2.67242 12.8569 2.37569 13.1193 2.06176 13.3816C1.4382 13.8933 1.30058 14.0482 1.13717 14.3965C0.986652 14.719 0.956549 15.2394 1.06406 15.5662C1.11136 15.6952 1.58871 16.5725 2.13487 17.5143C3.20997 19.3807 3.31748 19.5269 3.79053 19.7548C4.04856 19.8795 4.10446 19.8881 4.5216 19.8881C4.97315 19.8838 4.97745 19.8838 5.68272 19.6129C6.30628 19.3721 6.43099 19.3377 6.69332 19.3334C7.19647 19.3291 7.60071 19.5828 7.83723 20.0473C7.89314 20.1548 7.97484 20.5117 8.05225 20.9632C8.18987 21.7932 8.24577 21.9781 8.43069 22.2491C8.61131 22.5114 8.83923 22.6963 9.16606 22.8511L9.44559 22.9844L11.527 22.9973C12.8429 23.0059 13.6858 22.993 13.8191 22.9672C14.3395 22.8554 14.7566 22.5286 14.9931 22.047C15.1136 21.7932 15.1652 21.5997 15.2684 20.9804C15.406 20.1376 15.5006 19.8881 15.7715 19.6516C16.0295 19.428 16.279 19.3334 16.6273 19.3377C16.8939 19.3377 17.0143 19.3721 17.6379 19.6129C18.3432 19.8838 18.3475 19.8838 18.799 19.8881C19.2162 19.8881 19.2721 19.8795 19.5301 19.7548C19.9988 19.5269 20.1106 19.3764 21.1772 17.5358C21.7104 16.6069 22.1835 15.7683 22.2265 15.6737C22.2824 15.549 22.2996 15.3856 22.3039 15.0717C22.3039 14.6975 22.291 14.6115 22.1921 14.4051C22.0243 14.0568 21.8824 13.8976 21.246 13.373C20.631 12.8612 20.4719 12.6677 20.3687 12.328C20.287 12.0571 20.287 11.9366 20.3687 11.6657C20.4719 11.3217 20.6396 11.1196 21.246 10.6207C21.8738 10.1047 22.0243 9.93695 22.1921 9.58862C22.291 9.3822 22.3039 9.29619 22.3039 8.92205C22.2996 8.60812 22.2824 8.4447 22.2265 8.31999C22.1835 8.22538 21.7104 7.3868 21.1772 6.45791C20.1106 4.61732 19.9988 4.46681 19.5301 4.23888C19.2721 4.11417 19.2162 4.10557 18.799 4.10557C18.3475 4.10987 18.3432 4.10987 17.6379 4.3808C17.0143 4.62162 16.8896 4.65603 16.6273 4.66033C16.1242 4.66463 15.7199 4.4109 15.4834 3.94646C15.4318 3.84325 15.3458 3.48201 15.2684 3.03907C15.2039 2.63483 15.1136 2.21338 15.0705 2.09727C14.9243 1.68443 14.5158 1.27589 14.0814 1.09527C13.8879 1.01356 13.7546 1.00926 11.7463 1.00066C10.5766 0.996363 9.5445 1.01356 9.45419 1.03507ZM13.4665 2.71653C13.4665 2.72513 13.5224 3.06057 13.5955 3.46911C13.7804 4.53561 13.9911 5.00006 14.5373 5.52901C15.1437 6.12247 16.0252 6.4493 16.8208 6.3848C17.238 6.3504 17.3541 6.32029 18.1454 6.03216C18.5066 5.89885 18.8076 5.79994 18.8119 5.80854C18.8205 5.81714 19.2291 6.52241 19.7193 7.3696C20.4289 8.60382 20.5966 8.92635 20.5536 8.96505C20.5235 8.99086 20.2784 9.19298 20.016 9.4123C19.3968 9.91975 19.1474 10.2036 18.9323 10.6379C18.6915 11.1153 18.6141 11.4507 18.6141 11.9969C18.6141 12.543 18.6915 12.8784 18.9323 13.3558C19.1474 13.7901 19.3968 14.074 20.016 14.5814C20.2784 14.8007 20.5235 15.0029 20.5536 15.0287C20.5966 15.0674 20.4246 15.3942 19.7193 16.6241C19.2291 17.4713 18.8205 18.1766 18.8119 18.1852C18.8076 18.1938 18.5066 18.0949 18.1454 17.9615C17.3541 17.6734 17.238 17.6433 16.8208 17.6089C16.0252 17.5444 15.1394 17.8755 14.533 18.4604C13.9954 18.9893 13.7761 19.4624 13.5955 20.5246C13.5224 20.9331 13.4665 21.2686 13.4665 21.2729C13.4665 21.2815 12.6537 21.2858 11.6603 21.2858C10.6669 21.2858 9.85413 21.2815 9.85413 21.2729C9.85413 21.2686 9.79822 20.9331 9.72512 20.5246C9.5445 19.4624 9.33378 19.0066 8.79193 18.469C8.18987 17.8755 7.29968 17.5444 6.4998 17.6089C6.08266 17.6433 5.96655 17.6734 5.17527 17.9615C4.81403 18.0949 4.513 18.1938 4.5087 18.1852C4.37539 18.0175 2.72402 15.0717 2.74553 15.0502C2.76273 15.033 3.01215 14.8265 3.29598 14.59C3.89804 14.0912 4.12596 13.846 4.34098 13.459C4.59901 12.9989 4.70222 12.5731 4.70222 11.9969C4.70222 11.4206 4.59901 10.9949 4.34098 10.5347C4.12596 10.1477 3.89804 9.90255 3.29598 9.4037C3.01215 9.16717 2.76273 8.96075 2.74553 8.94355C2.72402 8.92205 4.37539 5.97626 4.5087 5.80854C4.513 5.79994 4.81403 5.89885 5.17527 6.03216C6.06546 6.359 6.15146 6.3762 6.67181 6.3805C7.20937 6.3805 7.5405 6.30309 8.02645 6.06227C8.41779 5.86875 8.71452 5.64082 9.00265 5.30109C9.39398 4.83664 9.5789 4.3722 9.72512 3.48201C9.77242 3.18528 9.82403 2.89285 9.83693 2.82404L9.86273 2.70793H11.6646C12.6537 2.70793 13.4665 2.71223 13.4665 2.71653Z"/>
    <path d="M11.1226 7.78718C10.5205 7.86459 9.81526 8.13552 9.2562 8.50535C8.94227 8.71177 8.37032 9.28803 8.15529 9.61056C7.1748 11.0985 7.1748 12.8961 8.15529 14.384C8.37032 14.7066 8.94227 15.2828 9.2562 15.4892C10.8947 16.5687 12.903 16.474 14.378 15.2484C15.6724 14.1776 16.2143 12.3628 15.7154 10.7717C15.2381 9.24073 13.9824 8.11401 12.4428 7.82588C12.0902 7.76138 11.4537 7.73988 11.1226 7.78718ZM12.4127 9.59336C13.1653 9.82558 13.8276 10.4921 14.077 11.2662C14.2017 11.6576 14.2017 12.337 14.077 12.7284C13.8233 13.511 13.1739 14.1604 12.3912 14.4098C11.9956 14.5389 11.3591 14.5389 10.9506 14.4141C10.155 14.169 9.49703 13.5196 9.2433 12.7284C9.11859 12.337 9.11859 11.6576 9.2476 11.2662C9.54433 10.333 10.4044 9.61056 11.3591 9.49015C11.6128 9.45575 12.1418 9.50735 12.4127 9.59336Z"/>
</svg>
