<svg width="24" height="24" viewBox="0 0 24 24" fill="none" xmlns="http://www.w3.org/2000/svg">
    <path d="M12.049 2.0083C12.049 2.0083 14.0999 9.03684 14.5806 9.51747C15.0612 9.9981 22.0897 12.0491 22.0897 12.0491C22.0897 12.0491 15.0612 14.1 14.5806 14.5807C14.0999 15.0613 12.049 22.0898 12.049 22.0898C12.049 22.0898 9.99798 15.0613 9.51735 14.5807C9.03672 14.1 2.00818 12.0491 2.00818 12.0491C2.00818 12.0491 9.03672 9.9981 9.51735 9.51747C9.99798 9.03684 12.049 2.0083 12.049 2.0083Z"/>
</svg>
